{
    "reviews": [
        {
            "name": "John",
            "message": "Nice site! ",
            "date": "14/12/2021",
            "time": "10:12:31"
        },
        {
            "name": "Jake",
            "message": "I love Cologne! ",
            "date": "14/12/2021",
            "time": "10:13:06"
        }
    ]
}
